﻿Hydrogen H, 1, 1.00794
Helium He, 2, 4.0026

Lithium Li, 3, 6.941
Beryllium Be, 4, 9.01218
Bohr B, 5, 10.811
Carbon C, 6, 12.011
Nitrogen N, 7, 14.00674
Oxygen O, 8, 15.9994
Flourine F, 9, 18.9984
Neon Ne, 10, 20.1797

Natrium Na, 11, 22.98977
Magnesium Mg, 12, 24.3050
Aluminium Al, 13, 26.98154
Silicon Si, 14, 28.0855
Phosphor P, 15, 30.97376
Sulphur S, 16, 32.066
Chlorine Cl, 17, 35.4527
Argon Ar, 18, 39.948

Potassium K, 19, 39.093
Calcium Ca, 20, 40.078
Scandium Sc, 21, 44.95591
Titanium Ti, 22, 47.867
Vanadium V, 23, 50.9415
Chromium Cr, 24, 51.9961
Manganese Mn, 25, 54.93805
Iron Fe, 26, 55.845
Cobalt Co, 27, 58.93320
Nickel Ni, 28, 58.6934
Copper Cu, 29, 63.546
Zinc Zn, 30, 65.39
Gallium Ga, 31, 69.723
Germanium Ge, 32, 72.61
Arsenic As, 33, 74.92159
Selenium Se, 34, 78.96
Bromine Br, 35, 79.904
Krypton Kr, 36, 83.80

Rubidium Rb, 37, 85.4678
Strontium Sr, 38, 87.62
Yttrium Y, 39, 88.90585
Zirconium Zr, 40, 91.224
Niobium Nb, 41, 92.9064
Molybdenium Mo, 42, 95.94
Technetium Tc, 43, 98
Ruthenium Ru, 44, 101.07
Rhodium Rh, 45, 102.9055
Palladium Pd, 46, 106.42
Silver Ag, 47, 107.8682
Cadmium Cd, 48, 112.411
Indium In, 49, 114.818
Tin Sn, 50, 118.710
Antinomy Sb, 51, 121.760
Tellurium Te, 52, 127.60
Iodine I, 53, 126.90447
Xenon Xe, 54, 118.710

Caesium Cs, 55, 132.90543
Barium Ba, 56, 137.327
Lanthanum La, 57, 138.9055
Cerium Ce, 58, 140.115
Praseodymium Pr, 59, 140.90765
Neodymium Nd, 60, 144.24
Promethium Pm, 61, 145
Samarium Sm, 62, 150.36
Europium Eu, 63, 151.965
Gadolinium Gd, 64, 157.25
Terbium Tb, 65, 158.92534
Dysprosium Dy, 66, 162.50
Holmium Nd, 67, 164.93032
Erbium Er, 68, 167.26
Thulium Tm, 69, 168.93421
Ytterbium Yb, 70, 173.04
Lutetium Lu, 71, 174.967
Hafnium Hf, 72, 178.49
Tantalum Ta, 73, 180.9479
Wolfram W, 74, 183.84
Rhenium Re, 75, 186.207
Osmium Os, 76, 190.23
Iridium Ir, 77, 192.217
Platinum Pt, 78, 195.08
Gold Au, 79, 196.96654
Mercury Hg, 80, 200.59
Thallium Ti, 81, 204.3833
Lead Pb, 82, 207.2
Bismuth Bi, 83, 208.98037
Polonium Po, 84, 209
Astatine At, 85, 210
Radon Rn, 86, 222

Francium Fr, 87, 223
Radium Ra, 88, 226.0254
Actinium Ac, 89, 227
Thorium Th, 90, 232.0381
Protactium Pa, 91, 231
Uranium U, 92, 238.0289